{
  "project_info": {
    "project_number": "643186922466",
    "project_id": "twitter-551ef",
    "storage_bucket": "twitter-551ef.appspot.com"
  },
  "client": [
    {
      "client_info": {
        "mobilesdk_app_id": "1:643186922466:android:62fd10d55b459552e25fbb",
        "android_client_info": {
          "package_name": "com.example.twitter_plus"
        }
      },
      "oauth_client": [
        {
          "client_id": "643186922466-n4c4t6e7mf3b9f8brucosfg42jqdtctg.apps.googleusercontent.com",
          "client_type": 3
        }
      ],
      "api_key": [
        {
          "current_key": "AIzaSyDHHwUAXhu8kiVDtX4XyNuBnkbtU8ejp8o"
        }
      ],
      "services": {
        "appinvite_service": {
          "other_platform_oauth_client": [
            {
              "client_id": "643186922466-n4c4t6e7mf3b9f8brucosfg42jqdtctg.apps.googleusercontent.com",
              "client_type": 3
            }
          ]
        }
      }
    }
  ],
  "configuration_version": "1"
}